MB-Index: 0.06817508220136417


------------------------------------
[0.3123482142857142, 0.27437499999999976, 0.33151785714285714, 0.2581339285714287, 0.2294910714285714, 0.21508928571428543]
------------------------------------
[0.0, 0.0, 0.0, 0.0, 0.0, 0.0]
[0.06, 0.06, 0.05, 0.25, 0.33, 0.33]
[0.15, 0.02, 0.34, 0.4, 0.01, 0.0]
[0.06, 0.06, 0.51, 0.41, 0.3, 0.33]
[0.05, 0.07, 0.7, 0.01, 0.05, 0.0]
[0.1, 0.25, 0.1, 0.08, 0.33, 0.33]
[0.15, 0.32, 0.05, 0.27, 0.29, 0.33]
[0.18, 0.31, 0.32, 0.42, 0.28, 0.33]
[0.04, 0.28, 0.55, 0.25, 0.1, 0.0]
[0.06, 0.35, 0.12, 0.43, 0.29, 0.33]
[0.18, 0.4, 0.32, 0.08, 0.33, 0.33]
[0.09, 0.33, 0.31, 0.26, 0.0, 0.0]
[0.115, 0.35, 0.65, 0.27, 0.04, 0.0]
[0.06, 0.5, 0.09, 0.28, 0.25, 0.33]
[0.1, 0.6, 0.33, 0.42, 0.26, 0.33]
[0.25, 0.1, 0.03, 0.09, 0.15, 0.0]
[0.32, 0.2, 0.06, 0.26, 0.24, 0.0]
[0.29, 0.06, 0.19, 0.55, 0.51, 0.66]
[0.28, 0.1, 0.12, 0.28, 0.32, 0.33]
[0.255, 0.18, 0.5, 0.4, 0.1, 0.0]
[0.275, 0.1, 0.72, 0.1, 0.3, 0.33]
[0.245, 0.1, 0.71, 0.26, 0.2, 0.0]
[0.25, 0.29, 0.15, 0.48, 0.26, 0.33]
[0.248, 0.3, 0.31, 0.2, 0.03, 0.0]
[0.27, 0.31, 0.32, 0.41, 0.28, 0.33]
[0.288, 0.31, 0.79, 0.23, 0.24, 0.33]
[0.243, 0.27, 0.08, 0.42, 0.29, 0.33]
[0.27, 0.28, 0.18, 0.48, 0.26, 0.33]
[0.305, 0.55, 0.5, 0.11, 0.333, 0.33]
[0.39, 0.05, 0.02, 0.06, 0.34, 0.33]
[0.45, 0.04, 0.18, 0.55, 0.07, 0.0]
[0.41, 0.18, 0.33, 0.31, 0.5, 0.66]
[0.38, 0.1, 0.4, 0.48, 0.26, 0.33]
[0.38, 0.01, 0.53, 0.27, 0.3, 0.33]
[0.39, 0.15, 0.81, 0.22, 0.29, 0.33]
[0.365, 0.243, 0.19, 0.24, 0.35, 0.33]
[0.33, 0.27, 0.2, 0.33, 0.1, 0.0]
[0.334, 0.295, 0.33, 0.32, 0.3, 0.33]
[0.36, 0.29, 0.37, 0.48, 0.13, 0.0]
[0.33, 0.34, 0.1, 0.49, 0.12, 0.0]
[0.42, 0.36, 0.63, 0.04, 0.25, 0.33]
[0.37, 0.55, 0.41, 0.29, 0.3, 0.33]
[0.55, 0.1, 0.27, 0.25, 0.29, 0.33]
[0.68, 0.19, 0.19, 0.48, 0.1, 0.0]
[0.55, 0.1, 0.34, 0.3, 0.1, 0.0]
[0.6, 0.19, 0.55, 0.08, 0.1, 0.0]
[0.69, 0.02, 0.62, 0.3, 0.29, 0.33]
[0.8, 0.29, 0.06, 0.31, 0.51, 0.66]
[0.6, 0.251, 0.39, 0.29, 0.3, 0.33]
[0.52, 0.288, 0.32, 0.5, 0.3, 0.33]
[0.58, 0.295, 0.62, 0.28, 0.3, 0.33]
[0.58, 0.348, 0.06, 0.29, 0.31, 0.33]
[0.61, 0.33, 0.36, 0.28, 0.28, 0.33]
[0.58, 0.35, 0.51, 0.27, 0.3, 0.33]
[0.52, 0.85, 0.06, 0.27, 0.25, 0.33]
[0.58, 0.58, 0.31, 0.29, 0.29, 0.33]
[0.0, 0.1, 0.5, 0.26, 0.05, 0.0]
[0.16, 0.25, 0.01, 0.1, 0.07, 0.0]
[0.18, 0.26, 0.05, 0.4, 0.04, 0.0]
[0.1, 0.27, 0.35, 0.45, 0.05, 0.0]
[0.0, 0.25, 0.5, 0.09, 0.07, 0.0]
[0.05, 0.29, 0.58, 0.14, 0.32, 0.33]
[0.12, 0.28, 0.7, 0.16, 0.32, 0.33]
[0.2, 0.25, 0.7, 0.25, 0.03, 0.0]
[0.16, 0.28, 0.72, 0.27, 0.32, 0.33]
[0.1, 0.33, 0.02, 0.0, 0.25, 0.0]
[0.18, 0.37, 0.11, 0.28, 0.3, 0.33]
[0.13, 0.4, 0.17, 0.25, 0.38, 0.33]
[0.14, 0.38, 0.59, 0.11, 0.32, 0.33]
[0.16, 0.51, 0.09, 0.38, 0.1, 0.0]
[0.12, 0.56, 0.13, 0.48, 0.32, 0.33]
[0.16, 0.52, 0.3, 0.09, 0.11, 0.0]
[0.08, 0.56, 0.33, 0.4, 0.1, 0.0]
[0.1, 0.6, 0.51, 0.1, 0.01, 0.0]
[0.0, 0.62, 0.52, 0.26, 0.07, 0.0]
[0.08, 0.56, 0.7, 0.14, 0.1, 0.0]
[0.08, 0.58, 0.71, 0.27, 0.09, 0.0]
[0.25, 0.0, 0.1, 0.12, 0.37, 0.33]
[0.32, 0.02, 0.34, 0.13, 0.31, 0.33]
[0.26, 0.09, 0.33, 0.28, 0.32, 0.33]
[0.25, 0.05, 0.53, 0.1, 0.12, 0.0]
[0.28, 0.08, 0.52, 0.25, 0.08, 0.0]
[0.28, 0.06, 0.7, 0.27, 0.32, 0.33]
[0.25, 0.28, 0.3, 0.001, 0.25, 0.0]
[0.26, 0.26, 0.31, 0.26, 0.13, 0.0]
[0.27, 0.29, 0.34, 0.28, 0.32, 0.33]
[0.25, 0.26, 0.51, 0.04, 0.13, 0.0]
[0.28, 0.27, 0.56, 0.14, 0.31, 0.33]
[0.25, 0.28, 0.77, 0.11, 0.31, 0.33]
[0.25, 0.54, 0.31, 0.25, 0.08, 0.0]
[0.29, 0.66, 0.35, 0.28, 0.31, 0.33]
[0.33, 0.04, 0.02, 0.12, 0.11, 0.0]
[0.37, 0.09, 0.1, 0.13, 0.32, 0.33]
[0.4, 0.15, 0.16, 0.3, 0.58, 0.66]
[0.37, 0.07, 0.1, 0.41, 0.3, 0.33]
[0.41, 0.11, 0.21, 0.44, 0.57, 0.66]
[0.41, 0.04, 0.33, 0.26, 0.12, 0.0]
[0.38, 0.09, 0.37, 0.28, 0.32, 0.33]
[0.38, 0.33, 0.1, 0.07, 0.4, 0.33]
[0.42, 0.39, 0.78, 0.32, 0.2, 0.33]
[0.36, 0.52, 0.07, 0.1, 0.15, 0.0]
[0.6, 0.08, 0.13, 0.14, 0.32, 0.33]
[0.65, 0.09, 0.16, 0.49, 0.31, 0.33]
[0.52, 0.08, 0.33, 0.07, 0.09, 0.0]
[0.62, 0.12, 0.36, 0.36, 0.32, 0.33]
[0.54, 0.25, 0.07, 0.09, 0.11, 0.0]
[0.52, 0.28, 0.32, 0.1, 0.1, 0.0]
[0.61, 0.38, 0.09, 0.38, 0.3, 0.33]
[0.58, 0.4, 0.32, 0.22, 0.24, 0.33]
[0.62, 0.56, 0.11, 0.24, 0.22, 0.33]
[0.64, 0.58, 0.14, 0.32, 0.21, 0.33]
[0.68, 0.61, 0.34, 0.31, 0.23, 0.33]
====================================



------------------------------------
[0.35109420289855076, 0.3864275362318839, 0.5111956521739132, 0.2554347826086955, 0.6787681159420287, 0.7664492753623173]
------------------------------------
[0.08, 0.08, 0.1, 0.24, 0.9, 1.0]
[0.09, 0.15, 0.4, 0.1, 0.66, 0.66]
[0.1, 0.1, 0.43, 0.29, 0.56, 0.66]
[0.0, 0.0, 0.5, 0.2, 0.85, 1.0]
[0.18, 0.18, 0.55, 0.3, 0.81, 1.0]
[0.1, 0.1, 0.7, 0.15, 0.9, 1.0]
[0.2, 0.2, 0.7, 0.3, 0.6, 0.66]
[0.12, 0.12, 0.75, 0.35, 0.8, 1.0]
[0.2, 0.29, 0.25, 0.49, 0.56, 0.66]
[0.18, 0.3, 0.37, 0.12, 0.66, 0.66]
[0.1, 0.27, 0.31, 0.29, 0.65, 0.66]
[0.09, 0.3, 0.68, 0.18, 0.85, 1.0]
[0.15, 0.275, 0.8, 0.21, 0.81, 1.0]
[0.12, 0.245, 0.75, 0.31, 0.59, 0.66]
[0.18, 0.32, 0.04, 0.19, 0.82, 1.0]
[0.2, 0.45, 0.28, 0.31, 0.78, 1.0]
[0.2, 0.49, 0.6, 0.2, 0.78, 1.0]
[0.14, 0.49, 0.55, 0.29, 0.6, 0.66]
[0.17, 0.36, 0.8, 0.14, 0.66, 0.66]
[0.1, 0.39, 0.75, 0.31, 0.62, 0.66]
[0.13, 0.39, 0.85, 0.38, 0.77, 1.0]
[0.09, 0.51, 0.02, 0.18, 0.67, 0.66]
[0.24, 0.75, 0.32, 0.18, 0.86, 1.0]
[0.18, 0.72, 0.37, 0.29, 0.55, 0.66]
[0.09, 0.6, 0.66, 0.19, 0.59, 0.66]
[0.18, 0.51, 0.58, 0.33, 0.82, 1.0]
[0.06, 0.77, 0.72, 0.19, 0.56, 0.66]
[0.15, 0.79, 0.78, 0.3, 0.51, 0.66]
[0.3, 0.08, 0.4, 0.02, 0.67, 0.66]
[0.27, 0.12, 0.37, 0.29, 0.58, 0.66]
[0.31, 0.1, 0.41, 0.42, 0.75, 1.0]
[0.3, 0.2, 0.52, 0.3, 0.53, 0.66]
[0.28, 0.16, 0.69, 0.33, 0.78, 1.0]
[0.295, 0.25, 0.26, 0.12, 0.67, 0.66]
[0.315, 0.32, 0.29, 0.29, 0.62, 0.66]
[0.325, 0.25, 0.38, 0.31, 0.79, 1.0]
[0.29, 0.3, 0.52, 0.09, 0.67, 0.66]
[0.258, 0.28, 0.64, 0.29, 0.56, 0.66]
[0.323, 0.32, 0.89, 0.32, 0.8, 1.0]
[0.258, 0.25, 0.295, 0.33, 0.77, 1.0]
[0.29, 0.25, 0.29, 0.29, 0.57, 0.66]
[0.299, 0.32, 0.31, 0.33, 0.87, 1.0]
[0.3, 0.27, 0.31, 0.31, 0.54, 0.66]
[0.29, 0.3, 0.56, 0.25, 0.67, 0.66]
[0.26, 0.28, 0.6, 0.29, 0.59, 0.66]
[0.305, 0.255, 0.63, 0.4, 0.54, 0.66]
[0.299, 0.295, 0.8, 0.37, 0.84, 1.0]
[0.276, 0.255, 0.81, 0.27, 0.33, 0.33]
[0.329, 0.55, 0.02, 0.4, 0.79, 1.0]
[0.295, 0.59, 0.29, 0.31, 0.55, 0.66]
[0.28, 0.78, 0.44, 0.17, 0.66, 0.66]
[0.325, 0.61, 0.46, 0.32, 0.81, 1.0]
[0.3, 0.85, 0.54, 0.25, 0.83, 0.66]
[0.299, 0.7, 0.95, 0.22, 0.66, 1.0]
[0.265, 0.76, 0.8, 0.28, 0.28, 0.33]
[0.4, 0.18, 0.26, 0.26, 0.67, 0.66]
[0.4, 0.12, 0.41, 0.1, 0.65, 0.66]
[0.41, 0.09, 0.58, 0.18, 0.58, 0.66]
[0.44, 0.08, 0.8, 0.22, 0.56, 0.66]
[0.49, 0.245, 0.38, 0.14, 0.86, 1.0]
[0.43, 0.305, 0.51, 0.09, 0.64, 0.66]
[0.44, 0.32, 0.55, 0.33, 0.52, 0.66]
[0.45, 0.299, 0.63, 0.36, 0.51, 0.66]
[0.465, 0.258, 0.73, 0.18, 0.59, 0.66]
[0.475, 0.32, 0.79, 0.31, 0.54, 0.66]
[0.445, 0.39, 0.02, 0.24, 0.88, 1.0]
[0.43, 0.45, 0.27, 0.27, 0.89, 1.0]
[0.4, 0.33, 0.12, 0.3, 0.9, 1.0]
[0.34, 0.4, 0.38, 0.2, 0.61, 0.66]
[0.38, 0.36, 0.46, 0.49, 0.78, 1.0]
[0.41, 0.49, 0.34, 0.21, 0.92, 1.0]
[0.43, 0.38, 0.62, 0.33, 0.49, 0.66]
[0.46, 0.44, 0.89, 0.12, 0.66, 0.66]
[0.38, 0.39, 0.79, 0.33, 0.3, 0.33]
[0.46, 0.64, 0.22, 0.22, 0.6, 0.66]
[0.44, 0.55, 0.11, 0.26, 0.83, 1.0]
[0.46, 0.78, 0.38, 0.24, 0.89, 1.0]
[0.495, 0.82, 0.67, 0.01, 0.93, 1.0]
[0.44, 0.69, 0.61, 0.29, 0.57, 0.66]
[0.445, 0.7, 0.82, 0.16, 0.64, 0.66]
[0.42, 0.7, 0.72, 0.3, 0.8, 1.0]
[0.37, 0.6, 0.77, 0.4, 0.5, 0.66]
[0.6, 0.14, 0.22, 0.11, 0.66, 0.66]
[0.78, 0.15, 0.38, 0.18, 0.63, 0.66]
[0.7, 0.18, 0.88, 0.09, 0.66, 0.66]
[0.75, 0.015, 0.78, 0.31, 0.53, 0.66]
[0.78, 0.27, 0.13, 0.14, 0.62, 0.66]
[0.72, 0.32, 0.48, 0.2, 0.6, 0.66]
[0.51, 0.255, 0.55, 0.17, 0.64, 0.66]
[0.79, 0.28, 0.88, 0.2, 0.66, 0.66]
[0.68, 0.27, 0.78, 0.31, 0.57, 0.66]
[0.71, 0.475, 0.13, 0.23, 0.59, 0.66]
[0.73, 0.43, 0.32, 0.12, 0.65, 0.66]
[0.66, 0.38, 0.55, 0.15, 0.62, 0.66]
[0.66, 0.36, 0.56, 0.4, 0.83, 1.0]
[0.62, 0.37, 0.81, 0.13, 0.64, 0.66]
[0.52, 0.44, 0.82, 0.3, 0.52, 0.66]
[0.64, 0.55, 0.15, 0.18, 0.63, 0.66]
[0.62, 0.67, 0.39, 0.1, 0.66, 0.66]
[0.68, 0.63, 0.65, 0.09, 0.66, 0.66]
[0.56, 0.6, 0.6, 0.31, 0.5, 0.66]
[0.78, 0.61, 0.71, 0.19, 0.6, 0.66]
[0.54, 0.82, 0.71, 0.29, 0.77, 1.0]
[0.08, 0.18, 0.63, 0.6, 0.85, 1.0]
[0.22, 0.22, 0.9, 0.3, 0.9, 1.0]
[0.11, 0.29, 0.2, 0.05, 0.66, 0.66]
[0.21, 0.32, 0.25, 0.5, 0.8, 1.0]
[0.23, 0.29, 0.45, 0.18, 0.88, 1.0]
[0.1, 0.3, 0.58, 0.28, 0.55, 0.66]
[0.2, 0.32, 0.65, 0.31, 0.89, 1.0]
[0.18, 0.29, 0.78, 0.15, 0.61, 0.66]
[0.15, 0.42, 0.6, 0.15, 0.62, 0.66]
[0.12, 0.62, 0.21, 0.3, 0.59, 0.66]
[0.14, 0.65, 0.19, 0.26, 0.66, 0.66]
[0.21, 0.78, 0.42, 0.32, 0.84, 1.0]
[0.14, 0.61, 0.39, 0.56, 0.56, 0.66]
[0.15, 0.67, 0.56, 0.07, 0.66, 0.66]
[0.21, 0.9, 0.9, 0.22, 0.92, 1.0]
[0.13, 0.62, 0.77, 0.28, 0.31, 0.33]
[0.28, 0.12, 0.38, 0.17, 0.6, 0.66]
[0.28, 0.16, 0.41, 0.51, 0.56, 0.66]
[0.32, 0.15, 0.66, 0.24, 0.82, 1.0]
[0.3, 0.16, 0.89, 0.32, 0.95, 1.0]
[0.31, 0.32, 0.29, 0.31, 0.96, 1.0]
[0.28, 0.29, 0.19, 0.37, 0.58, 0.66]
[0.28, 0.28, 0.38, 0.29, 0.62, 0.66]
[0.31, 0.32, 0.69, 0.3, 0.98, 1.0]
[0.29, 0.74, 0.39, 0.41, 0.54, 0.66]
[0.31, 0.82, 0.47, 0.4, 0.99, 1.0]
[0.42, 0.29, 0.14, 0.03, 0.68, 0.66]
[0.4, 0.3, 0.18, 0.29, 0.59, 0.66]
[0.41, 0.37, 0.79, 0.12, 0.32, 0.33]
[0.8, 0.24, 0.23, 0.29, 0.98, 1.0]
[0.68, 0.15, 0.58, 0.35, 0.6, 0.66]
[0.9, 0.31, 0.24, 0.3, 0.97, 1.0]
[0.78, 0.47, 0.24, 0.3, 0.93, 1.0]
[0.57, 0.37, 0.75, 0.27, 0.32, 0.33]
[0.56, 0.6, 0.77, 0.13, 0.32, 0.33]
====================================



------------------------------------
[0.30819587628865985, 0.339237113402062, 0.485979381443299, 0.6850515463917526, 0.2439175257731958, 0.42195876288659706]
------------------------------------
[0.1, 0.1, 0.15, 0.65, 0.3, 0.66]
[0.08, 0.08, 0.08, 0.98, 0.24, 0.33]
[0.2, 0.14, 0.35, 0.72, 0.25, 0.33]
[0.1, 0.1, 0.52, 0.78, 0.34, 0.66]
[0.12, 0.28, 0.2, 0.78, 0.2, 0.33]
[0.06, 0.29, 0.35, 0.76, 0.25, 0.33]
[0.09, 0.255, 0.6, 0.45, 0.25, 0.33]
[0.08, 0.325, 0.62, 0.94, 0.56, 1.0]
[0.15, 0.295, 0.75, 0.65, 0.24, 0.33]
[0.1, 0.256, 0.7, 0.76, 0.16, 0.33]
[0.1, 0.42, 0.22, 0.72, 0.26, 0.33]
[0.19, 0.38, 0.38, 0.49, 0.45, 0.66]
[0.02, 0.33, 0.36, 0.76, 0.1, 0.33]
[0.18, 0.33, 0.61, 0.64, 0.25, 0.66]
[0.23, 0.7, 0.19, 0.51, 0.45, 0.66]
[0.09, 0.55, 0.12, 0.78, 0.05, 0.33]
[0.2, 0.52, 0.36, 0.84, 0.25, 0.66]
[0.08, 0.58, 0.6, 0.64, 0.1, 0.33]
[0.09, 0.61, 0.53, 0.75, 0.01, 0.33]
[0.2, 0.68, 0.73, 0.48, 0.28, 0.33]
[0.24, 0.58, 0.76, 0.8, 0.28, 0.66]
[0.29, 0.15, 0.33, 0.66, 0.08, 0.0]
[0.265, 0.06, 0.57, 0.75, 0.1, 0.33]
[0.295, 0.2, 0.86, 0.44, 0.28, 0.33]
[0.32, 0.12, 0.79, 0.76, 0.24, 0.33]
[0.27, 0.1, 0.1, 0.7, 0.25, 0.33]
[0.29, 0.29, 0.4, 0.78, 0.18, 0.33]
[0.32, 0.255, 0.55, 0.78, 0.34, 0.66]
[0.251, 0.265, 0.57, 0.6, 0.09, 0.0]
[0.255, 0.305, 0.86, 0.62, 0.15, 0.33]
[0.295, 0.25, 0.73, 0.77, 0.19, 0.33]
[0.245, 0.26, 0.38, 0.49, 0.27, 0.33]
[0.295, 0.29, 0.31, 0.76, 0.1, 0.33]
[0.32, 0.27, 0.52, 0.81, 0.3, 0.66]
[0.258, 0.31, 0.88, 0.4, 0.3, 0.33]
[0.285, 0.64, 0.18, 0.61, 0.45, 0.66]
[0.265, 0.6, 0.28, 0.66, 0.07, 0.0]
[0.28, 0.65, 0.4, 0.65, 0.13, 0.33]
[0.255, 0.75, 0.35, 0.72, 0.25, 0.33]
[0.255, 0.72, 0.72, 0.63, 0.14, 0.33]
[0.295, 0.6, 0.72, 0.88, 0.28, 0.66]
[0.37, 0.06, 0.32, 0.78, 0.1, 0.33]
[0.33, 0.04, 0.5, 0.55, 0.1, 0.0]
[0.42, 0.15, 0.66, 0.78, 0.4, 0.66]
[0.42, 0.21, 0.87, 0.56, 0.48, 0.66]
[0.345, 0.299, 0.1, 0.64, 0.13, 0.33]
[0.39, 0.26, 0.39, 0.77, 0.14, 0.33]
[0.348, 0.329, 0.83, 0.61, 0.18, 0.33]
[0.385, 0.26, 0.76, 0.84, 0.3, 0.66]
[0.35, 0.38, 0.32, 0.6, 0.16, 0.33]
[0.4, 0.42, 0.58, 0.75, 0.16, 0.33]
[0.39, 0.42, 0.83, 0.65, 0.19, 0.33]
[0.365, 0.68, 0.1, 0.63, 0.18, 0.33]
[0.38, 0.59, 0.31, 0.62, 0.2, 0.33]
[0.49, 0.64, 0.34, 0.78, 0.21, 0.33]
[0.365, 0.57, 0.59, 0.55, 0.25, 0.33]
[0.73, 0.2, 0.07, 0.72, 0.26, 0.33]
[0.59, 0.18, 0.31, 0.55, 0.09, 0.0]
[0.64, 0.09, 0.33, 0.65, 0.5, 0.66]
[0.62, 0.14, 0.52, 0.81, 0.15, 0.33]
[0.55, 0.17, 0.71, 0.48, 0.11, 0.0]
[0.76, 0.258, 0.07, 0.83, 0.34, 0.66]
[0.61, 0.258, 0.56, 0.62, 0.24, 0.33]
[0.77, 0.267, 0.59, 0.78, 0.28, 0.66]
[0.58, 0.299, 0.73, 0.63, 0.21, 0.33]
[0.51, 0.4, 0.4, 0.59, 0.23, 0.33]
[0.523, 0.41, 0.55, 0.6, 0.22, 0.33]
[0.5, 0.4, 0.73, 0.62, 0.2, 0.33]
[0.62, 0.62, 0.24, 0.65, 0.25, 0.66]
[0.54, 0.51, 0.55, 0.64, 0.19, 0.33]
[0.5, 0.75, 0.81, 0.61, 0.26, 0.66]
[0.05, 0.05, 0.55, 0.6, 0.14, 0.33]
[0.14, 0.14, 0.7, 0.5, 0.3, 0.33]
[0.16, 0.16, 0.8, 0.5, 0.5, 0.66]
[0.12, 0.12, 0.75, 0.68, 0.15, 0.33]
[0.13, 0.28, 0.18, 0.75, 0.32, 0.66]
[0.19, 0.28, 0.57, 0.58, 0.17, 0.33]
[0.11, 0.26, 0.56, 0.68, 0.27, 0.33]
[0.11, 0.3, 0.79, 0.8, 0.32, 0.66]
[0.18, 0.31, 0.81, 0.7, 0.4, 0.66]
[0.11, 0.42, 0.38, 0.82, 0.31, 0.66]
[0.09, 0.38, 0.54, 0.69, 0.21, 0.33]
[0.18, 0.7, 0.41, 0.67, 0.33, 0.66]
[0.29, 0.1, 0.17, 0.74, 0.52, 0.66]
[0.26, 0.12, 0.34, 0.68, 0.29, 0.33]
[0.31, 0.15, 0.58, 0.76, 0.52, 0.66]
[0.27, 0.03, 0.76, 0.59, 0.23, 0.33]
[0.26, 0.26, 0.35, 0.62, 0.24, 0.33]
[0.28, 0.29, 0.57, 0.6, 0.27, 0.33]
[0.27, 0.28, 0.59, 0.69, 0.26, 0.66]
[0.28, 0.55, 0.38, 0.9, 0.22, 0.33]
[0.42, 0.13, 0.15, 0.94, 0.3, 0.66]
[0.4, 0.59, 0.77, 0.99, 0.24, 0.66]
[0.43, 0.65, 0.76, 0.94, 0.29, 0.66]
[0.56, 0.27, 0.11, 0.59, 0.22, 0.33]
[0.56, 0.35, 0.1, 0.62, 0.23, 0.33]
[0.64, 0.59, 0.12, 0.58, 0.24, 0.33]
====================================



------------------------------------
[0.5176249999999999, 0.4728749999999999, 0.5289285714285714, 0.7717857142857144, 0.7299999999999999, 0.9696428571428568]
------------------------------------
[0.18, 0.34, 0.71, 0.71, 0.9, 1.0]
[0.32, 0.28, 0.72, 0.89, 0.58, 1.0]
[0.315, 0.69, 0.28, 0.8, 0.7, 1.0]
[0.325, 0.9, 0.52, 0.49, 0.76, 1.0]
[0.312, 0.8, 0.67, 0.92, 0.5, 1.0]
[0.48, 0.12, 0.28, 0.7, 0.71, 1.0]
[0.46, 0.2, 0.76, 0.95, 0.65, 1.0]
[0.48, 0.3, 0.15, 0.65, 0.77, 1.0]
[0.495, 0.276, 0.58, 0.77, 0.83, 1.0]
[0.44, 0.33, 0.59, 0.53, 0.85, 1.0]
[0.49, 0.34, 0.88, 0.75, 0.71, 1.0]
[0.45, 0.65, 0.19, 0.99, 0.55, 1.0]
[0.49, 0.9, 0.52, 0.9, 0.47, 1.0]
[0.4, 0.61, 0.71, 0.88, 0.67, 1.0]
[0.78, 0.21, 0.68, 0.65, 0.75, 1.0]
[0.85, 0.05, 0.91, 0.8, 0.68, 1.0]
[0.9, 0.26, 0.19, 0.58, 0.79, 1.0]
[0.6, 0.31, 0.31, 0.87, 0.58, 1.0]
[0.77, 0.29, 0.74, 0.82, 0.68, 1.0]
[0.88, 0.335, 0.19, 0.55, 0.78, 1.0]
[0.99, 0.49, 0.07, 0.7, 0.69, 1.0]
[0.83, 0.44, 0.49, 0.91, 0.66, 1.0]
[0.71, 0.46, 0.95, 0.78, 0.86, 1.0]
[0.91, 0.58, 0.26, 0.89, 0.88, 1.0]
[0.89, 0.68, 0.49, 0.65, 0.9, 1.0]
[0.72, 0.6, 0.45, 0.79, 0.45, 0.66]
[0.61, 0.78, 0.69, 0.92, 0.58, 1.0]
[0.66, 0.9, 0.76, 0.87, 0.74, 1.0]
[0.2, 0.2, 0.68, 0.67, 0.85, 1.0]
[0.2, 0.2, 0.88, 0.77, 0.8, 1.0]
[0.22, 0.31, 0.42, 0.88, 0.8, 1.0]
[0.22, 0.48, 0.47, 0.78, 0.81, 1.0]
[0.2, 0.49, 0.68, 0.76, 0.78, 1.0]
[0.2, 0.85, 0.24, 0.79, 0.85, 1.0]
[0.22, 0.8, 0.44, 0.78, 0.88, 1.0]
[0.11, 0.88, 0.67, 0.66, 0.89, 1.0]
[0.21, 0.88, 0.87, 0.56, 0.95, 1.0]
[0.22, 0.86, 0.83, 0.89, 0.65, 1.0]
[0.2, 0.78, 0.91, 0.82, 0.85, 1.0]
[0.3, 0.18, 0.23, 0.9, 0.84, 1.0]
[0.31, 0.2, 0.46, 0.78, 0.83, 1.0]
[0.33, 0.2, 0.64, 0.59, 0.94, 1.0]
[0.32, 0.2, 0.84, 0.81, 0.8, 1.0]
[0.32, 0.31, 0.26, 0.83, 0.77, 1.0]
[0.3, 0.32, 0.43, 0.87, 0.83, 1.0]
[0.47, 0.47, 0.25, 0.96, 0.61, 1.0]
[0.68, 0.16, 0.2, 0.59, 0.6, 0.66]
[0.75, 0.22, 0.24, 0.96, 0.62, 1.0]
[0.87, 0.23, 0.25, 0.85, 0.8, 1.0]
[0.85, 0.32, 0.22, 0.87, 0.79, 1.0]
[0.78, 0.47, 0.29, 0.98, 0.59, 1.0]
[0.68, 0.43, 0.6, 0.47, 0.55, 0.66]
[0.9, 0.78, 0.62, 0.32, 0.89, 1.0]
[0.85, 0.82, 0.66, 0.83, 0.83, 1.0]
[0.66, 0.68, 0.81, 0.57, 0.57, 0.66]
[0.68, 0.64, 0.79, 0.97, 0.24, 0.66]
====================================


